<svg 
 xmlns="http://www.w3.org/2000/svg"
 xmlns:xlink="http://www.w3.org/1999/xlink"
 width="372px" height="419px">
<path fill-rule="evenodd"  fill="rgb(248, 103, 52)"
 d="M191.027,419.000 L0.000,310.658 L0.000,114.941 L0.000,114.941 L186.000,-0.000 L372.000,114.941 L372.000,114.941 L372.000,310.658 L191.027,419.000 Z"/>
</svg>